module gitlab.com/nbdgocean6/go-library

go 1.17

require (
	github.com/albrow/forms v0.3.3
	github.com/gin-gonic/gin v1.7.7
	github.com/go-chi/chi v1.5.4
	github.com/google/uuid v1.3.0
	github.com/joho/godotenv v1.4.0
	github.com/prometheus/client_golang v1.12.1
	github.com/sirupsen/logrus v1.8.1
	github.com/sony/gobreaker v0.5.0
	github.com/spf13/cast v1.4.1
	github.com/stretchr/testify v1.6.1
	go.elastic.co/apm/module/apmchi v1.15.0
)

require (
	github.com/armon/go-radix v1.0.0 // indirect
	github.com/beorn7/perks v1.0.1 // indirect
	github.com/cespare/xxhash/v2 v2.1.2 // indirect
	github.com/davecgh/go-spew v1.1.1 // indirect
	github.com/elastic/go-licenser v0.3.1 // indirect
	github.com/elastic/go-sysinfo v1.1.1 // indirect
	github.com/elastic/go-windows v1.0.0 // indirect
	github.com/gin-contrib/sse v0.1.0 // indirect
	github.com/go-playground/locales v0.13.0 // indirect
	github.com/go-playground/universal-translator v0.17.0 // indirect
	github.com/go-playground/validator/v10 v10.4.1 // indirect
	github.com/golang/protobuf v1.5.2 // indirect
	github.com/jcchavezs/porto v0.1.0 // indirect
	github.com/joeshaw/multierror v0.0.0-20140124173710-69b34d4ec901 // indirect
	github.com/json-iterator/go v1.1.12 // indirect
	github.com/leodido/go-urn v1.2.0 // indirect
	github.com/mattn/go-isatty v0.0.12 // indirect
	github.com/matttproud/golang_protobuf_extensions v1.0.1 // indirect
	github.com/modern-go/concurrent v0.0.0-20180306012644-bacd9c7ef1dd // indirect
	github.com/modern-go/reflect2 v1.0.2 // indirect
	github.com/pkg/errors v0.9.1 // indirect
	github.com/pmezard/go-difflib v1.0.0 // indirect
	github.com/prometheus/client_model v0.2.0 // indirect
	github.com/prometheus/common v0.32.1 // indirect
	github.com/prometheus/procfs v0.7.3 // indirect
	github.com/santhosh-tekuri/jsonschema v1.2.4 // indirect
	github.com/ugorji/go/codec v1.1.7 // indirect
	go.elastic.co/apm v1.15.0 // indirect
	go.elastic.co/apm/module/apmhttp v1.15.0 // indirect
	go.elastic.co/fastjson v1.1.0 // indirect
	golang.org/x/crypto v0.0.0-20200622213623-75b288015ac9 // indirect
	golang.org/x/lint v0.0.0-20201208152925-83fdc39ff7b5 // indirect
	golang.org/x/mod v0.3.0 // indirect
	golang.org/x/sys v0.0.0-20220114195835-da31bd327af9 // indirect
	golang.org/x/tools v0.0.0-20200825202427-b303f430e36d // indirect
	golang.org/x/xerrors v0.0.0-20200804184101-5ec99f83aff1 // indirect
	google.golang.org/protobuf v1.26.0 // indirect
	gopkg.in/yaml.v2 v2.4.0 // indirect
	gopkg.in/yaml.v3 v3.0.0-20200313102051-9f266ea9e77c // indirect
	howett.net/plist v0.0.0-20181124034731-591f970eefbb // indirect
)
